…
  # Arranging the data for easier analysis
  arrange(test, -prop)
```

```
## `summarise()` has grouped output by 'genre'. You can override using the
## `.groups` argument.
```

```
## # A tibble: 24 × 4
## # Groups:   genre [14]
##    genre       test      n  prop
##    <chr>       <fct> <int> <dbl>
##  1 Documentary Fail      3 1    
##  2 Sci-Fi      Fail      5 1    
##  3 Mystery     Fail      9 0.75 
##  4 Action      Fail    260 0.707
##  5 Animation   Fail     63 0.677
##  6 Fantasy     Fail      4 0.667
##  7 Crime       Fail     56 0.622
##  8 Adventure   Fail     52 0.559
##  9 Biography   Fail     36 0.554
## 10 Drama       Fail    121 0.473
## # ℹ 14 more rows
```
…
# What does the data for ROC look like?
tree_preds %>% 
  collect_predictions() %>% 
  roc_curve(truth = test, .pred_Fail)  
```

```
## # A tibble: 29 × 3
##    .threshold specificity sensitivity
##         <dbl>       <dbl>       <dbl>
##  1   -Inf         0             1    
##  2      0.262     0             1    
##  3      0.317     0.00201       0.989
##  4      0.373     0.00805       0.982
##  5      0.440     0.0181        0.976
##  6      0.459     0.0443        0.943
##  7      0.460     0.0765        0.924
##  8      0.464     0.115         0.901
##  9      0.465     0.147         0.887
## 10      0.465     0.191         0.864
## # ℹ 19 more rows
```
…
# Create a confusion matrix faceted by model type
confusion_matrix_plot <- ggplot(all_preds, aes(x = actual, y = pred, fill = pred)) +
  geom_tile() +
  facet_wrap(~ model, scales = "free") +
  scale_fill_manual(values = c("green", "red"), labels = c("False", "True")) +
  labs(title = "Confusion Matrix by Model Type", x = "Actual", y = "Predicted")

# View the combined predictions and the confusion matrix plot
print(all_preds)
```

```
## # A tibble: 1,400 × 3
##    pred  actual model              
##    <fct> <fct>  <chr>              
##  1 Pass  Fail   Logistic Regression
##  2 Pass  Fail   Logistic Regression
##  3 Fail  Fail   Logistic Regression
##  4 Pass  Pass   Logistic Regression
##  5 Pass  Fail   Logistic Regression
##  6 Pass  Fail   Logistic Regression
##  7 Pass  Pass   Logistic Regression
##  8 Pass  Fail   Logistic Regression
##  9 Pass  Fail   Logistic Regression
## 10 Fail  Pass   Logistic Regression
## # ℹ 1,390 more rows
```
…
